1.2.3.4 == 20180330121048 AddIssueDueToNotificationSettings: migrating ================
1.2.3.4 -- add_column(:notification_settings, :issue_due, :boolean)
1.2.3.4    -> 0.0173s
1.2.3.4 == 20180330121048 AddIssueDueToNotificationSettings: migrated (0.0176s) =======
1.2.3.4
1.2.3.4 == 20180403035759 CreateProjectCiCdSettings: migrating ========================
1.2.3.4 -- table_exists?(:project_ci_cd_settings)
1.2.3.4    -> 0.0015s
1.2.3.4 -- create_table(:project_ci_cd_settings)
1.2.3.4    -> 0.0903s
1.2.3.4 -- execute("SET statement_timeout TO 0")
1.2.3.4    -> 0.0009s
1.2.3.4 -- execute("INSERT INTO project_ci_cd_settings (project_id) SELECT id FROM projects")
1.2.3.4    -> 11.2737s
1.2.3.4 -- transaction_open?()
1.2.3.4    -> 0.0000s
1.2.3.4 -- execute("SET statement_timeout TO 0")
1.2.3.4    -> 0.0008s
1.2.3.4 -- index_exists?(:project_ci_cd_settings, :project_id, {:unique=>true, :algorithm=>:concurrently})
1.2.3.4    -> 0.0030s
1.2.3.4 -- add_index(:project_ci_cd_settings, :project_id, {:unique=>true, :algorithm=>:concurrently})
1.2.3.4    -> 31.0325s
1.2.3.4 -- execute("DELETE FROM project_ci_cd_settings\nWHERE NOT EXISTS (\n  SELECT 1\n  FROM projects\n  WHERE projects.id = project_ci_cd_settings.project_id\n)\n")
1.2.3.4    -> 3.5704s
1.2.3.4 -- transaction_open?()
1.2.3.4    -> 0.0001s
1.2.3.4 -- execute("SET statement_timeout TO 0")
1.2.3.4    -> 0.0009s
1.2.3.4 -- foreign_keys(:project_ci_cd_settings)
1.2.3.4    -> 0.0039s
1.2.3.4 -- execute("ALTER TABLE project_ci_cd_settings\nADD CONSTRAINT fk_24c15d2f2e\nFOREIGN KEY (project_id)\nREFERENCES projects (id)\nON DELETE CASCADE\nNOT VALID;\n")
1.2.3.4    -> 5.5681s
1.2.3.4 -- execute("ALTER TABLE project_ci_cd_settings VALIDATE CONSTRAINT fk_24c15d2f2e;")
1.2.3.4    -> 2.9772s
1.2.3.4 == 20180403035759 CreateProjectCiCdSettings: migrated (54.5271s) ==============
1.2.3.4
1.2.3.4 == 20180413022611 CreateMissingNamespaceForInternalUsers: migrating ===========
1.2.3.4 -- column_exists?(:users, :support_bot)
1.2.3.4    -> 0.0049s
1.2.3.4 == 20180413022611 CreateMissingNamespaceForInternalUsers: migrated (0.0311s) ==
1.2.3.4
1.2.3.4 == 20180416112831 DropNullConstraintGeoEventsStoragePath: migrating ===========
1.2.3.4 -- change_column_null(:geo_hashed_storage_migrated_events, :repository_storage_path, true)
1.2.3.4    -> 0.0024s
1.2.3.4 -- change_column_null(:geo_repository_created_events, :repository_storage_path, true)
1.2.3.4    -> 0.0021s
1.2.3.4 -- change_column_null(:geo_repository_deleted_events, :repository_storage_path, true)
1.2.3.4    -> 0.0020s
1.2.3.4 -- change_column_null(:geo_repository_renamed_events, :repository_storage_path, true)
1.2.3.4    -> 0.0014s
1.2.3.4 == 20180416112831 DropNullConstraintGeoEventsStoragePath: migrated (0.0090s) ==
1.2.3.4
1.2.3.4 == 20180416155103 AddFurtherScopeColumnsToInternalIdTable: migrating ==========
1.2.3.4 -- change_column_null(:internal_ids, :project_id, true)
1.2.3.4    -> 0.0014s
1.2.3.4 -- add_column(:internal_ids, :namespace_id, :integer, {:null=>true})
1.2.3.4    -> 0.0012s
1.2.3.4 == 20180416155103 AddFurtherScopeColumnsToInternalIdTable: migrated (0.0028s) =
1.2.3.4
1.2.3.4 == 20180416205949 AddChecksumFieldsToGeoNodeStatuses: migrating ===============
1.2.3.4 -- add_column(:geo_node_statuses, :repositories_checksummed_count, :integer)
1.2.3.4    -> 0.0014s
1.2.3.4 -- add_column(:geo_node_statuses, :repositories_checksum_failed_count, :integer)
1.2.3.4    -> 0.0012s
1.2.3.4 -- add_column(:geo_node_statuses, :repositories_checksum_mismatch_count, :integer)
1.2.3.4    -> 0.0012s
1.2.3.4 -- add_column(:geo_node_statuses, :wikis_checksummed_count, :integer)
1.2.3.4    -> 0.0047s
1.2.3.4 -- add_column(:geo_node_statuses, :wikis_checksum_failed_count, :integer)
1.2.3.4    -> 0.0012s
1.2.3.4 -- add_column(:geo_node_statuses, :wikis_checksum_mismatch_count, :integer)
1.2.3.4    -> 0.0019s
1.2.3.4 == 20180416205949 AddChecksumFieldsToGeoNodeStatuses: migrated (0.0123s) ======
1.2.3.4
1.2.3.4 == 20180417090132 AddIndexConstraintsToInternalIdTable: migrating =============
1.2.3.4 -- transaction_open?()
1.2.3.4    -> 0.0000s
1.2.3.4 -- execute("SET statement_timeout TO 0")
1.2.3.4    -> 0.0009s
1.2.3.4 -- index_exists?(:internal_ids, [:usage, :namespace_id], {:unique=>true, :where=>"namespace_id IS NOT NULL", :algorithm=>:concurrently})
1.2.3.4    -> 0.0037s
1.2.3.4 -- add_index(:internal_ids, [:usage, :namespace_id], {:unique=>true, :where=>"namespace_id IS NOT NULL", :algorithm=>:concurrently})
1.2.3.4    -> 11.2121s
1.2.3.4 -- index_exists?(:internal_ids, [:usage, :project_id], {:name=>"index_internal_ids_on_usage_and_project_id"})
1.2.3.4    -> 0.0046s
1.2.3.4 -- rename_index(:internal_ids, "index_internal_ids_on_usage_and_project_id", "index_internal_ids_on_usage_and_project_id_old")
1.2.3.4    -> 0.0044s
1.2.3.4 -- transaction_open?()
1.2.3.4    -> 0.0000s
1.2.3.4 -- execute("SET statement_timeout TO 0")
1.2.3.4    -> 0.0009s
1.2.3.4 -- index_exists?(:internal_ids, [:usage, :project_id], {:unique=>true, :where=>"project_id IS NOT NULL", :algorithm=>:concurrently})
1.2.3.4    -> 0.0043s
1.2.3.4 -- add_index(:internal_ids, [:usage, :project_id], {:unique=>true, :where=>"project_id IS NOT NULL", :algorithm=>:concurrently})
1.2.3.4    -> 10.3369s
1.2.3.4 -- transaction_open?()
1.2.3.4    -> 0.0000s
1.2.3.4 -- select_one("SELECT current_setting('server_version_num') AS v")
1.2.3.4    -> 0.0014s
1.2.3.4 -- execute("SET statement_timeout TO 0")
1.2.3.4    -> 0.0008s
1.2.3.4 -- indexes(:internal_ids)
1.2.3.4    -> 0.0051s
1.2.3.4 -- remove_index(:internal_ids, {:algorithm=>:concurrently, :name=>"index_internal_ids_on_usage_and_project_id_old"})
1.2.3.4    -> 0.0220s
1.2.3.4 -- transaction_open?()
1.2.3.4    -> 0.0000s
1.2.3.4 -- execute("SET statement_timeout TO 0")
1.2.3.4    -> 0.0008s
1.2.3.4 -- foreign_keys(:internal_ids)
1.2.3.4    -> 0.0035s
1.2.3.4 -- execute("ALTER TABLE internal_ids\nADD CONSTRAINT fk_162941d509\nFOREIGN KEY (namespace_id)\nREFERENCES namespaces (id)\nON DELETE CASCADE\nNOT VALID;\n")
1.2.3.4    -> 0.0212s
1.2.3.4 -- execute("ALTER TABLE internal_ids VALIDATE CONSTRAINT fk_162941d509;")
1.2.3.4    -> 0.0049s
1.2.3.4 == 20180417090132 AddIndexConstraintsToInternalIdTable: migrated (21.6306s) ===
1.2.3.4
1.2.3.4 == 20180417101040 AddTmpStagePriorityIndexToCiBuilds: migrating ===============
1.2.3.4 -- transaction_open?()
1.2.3.4    -> 0.0000s
1.2.3.4 -- execute("SET statement_timeout TO 0")
1.2.3.4    -> 0.0010s
1.2.3.4 -- index_exists?(:ci_builds, [:stage_id, :stage_idx], {:where=>"stage_idx IS NOT NULL", :name=>"tmp_build_stage_position_index", :algorithm=>:concurrently})
1.2.3.4    -> 0.0223s
1.2.3.4 -- add_index(:ci_builds, [:stage_id, :stage_idx], {:where=>"stage_idx IS NOT NULL", :name=>"tmp_build_stage_position_index", :algorithm=>:concurrently})
1.2.3.4    -> 318.2116s
1.2.3.4 == 20180417101040 AddTmpStagePriorityIndexToCiBuilds: migrated (318.2355s) ====
1.2.3.4
1.2.3.4 == 20180417101940 AddIndexToCiStage: migrating ================================
1.2.3.4 -- add_column(:ci_stages, :position, :integer)
1.2.3.4    -> 0.0021s
1.2.3.4 == 20180417101940 AddIndexToCiStage: migrated (0.0022s) =======================
1.2.3.4
1.2.3.4 == 20180419031622 AddIndexForTrackingMirroredCiCdRepositories: migrating ======
1.2.3.4 -- execute("CREATE INDEX CONCURRENTLY IF NOT EXISTS index_projects_on_mirror_and_mirror_trigger_builds_both_true ON projects (id) WHERE (mirror IS TRUE AND mirror_trigger_builds IS TRUE);")
1.2.3.4    -> 16.4487s
1.2.3.4 == 20180419031622 AddIndexForTrackingMirroredCiCdRepositories: migrated (416.4499s)
1.2.3.4
1.2.3.4 == 20180425131009 AssureCommitsCountForMergeRequestDiff: migrating ============
1.2.3.4 == 20180425131009 AssureCommitsCountForMergeRequestDiff: migrated (30.8049s) ==
1.2.3.4
